{
  "version": "2.0",
  "licenses": [
    {
      "id": "Apache-2.0",
      "name": "Apache License 2.0",
      "url": "https://opensource.org/licenses/Apache-2.0",
      "count": 1
    },
    {
      "id": "BSD-3-Clause",
      "name": "BSD 3-Clause \"New\" or \"Revised\" License",
      "url": "https://opensource.org/licenses/BSD-3-Clause",
      "count": 1
    },
    {
      "id": "GPL-2.0-or-later",
      "name": "GNU General Public License v2.0 or later",
      "url": "https://opensource.org/licenses/GPL-2.0",
      "count": 1
    }
  ],
  "dependencies": [
    {
      "name": "jerryscript",
      "url": "",
      "description": "",
      "paths": [
        "."
      ],
      "licenses": [
        "Apache-2.0"
      ]
    },
    {
      "name": "wolfssl",
      "url": "",
      "description": "",
      "paths": [
        "."
      ],
      "licenses": [
        "GPL-2.0-or-later"
      ]
    },
    {
      "name": "zstd",
      "url": "",
      "description": "",
      "paths": [
        "."
      ],
      "licenses": [
        "BSD-3-Clause"
      ]
    }
  ]
}